{
  "result": {
    "item": "lucraftcore:advanced_circuit"
  },
  "pattern": [
    "WCW",
    "RPR",
    "WCW"
  ],
  "conditions": [
    {
      "item": "lucraftcore:advanced_circuit",
      "type": "minecraft:item_exists"
    },
    {
      "item": "lucraftcore:basic_circuit",
      "type": "minecraft:item_exists"
    },
    {
      "item": "lucraftcore:lv_capacitor",
      "type": "minecraft:item_exists"
    }
  ],
  "type": "forge:ore_shaped",
  "key": {
    "P": {
      "item": "lucraftcore:basic_circuit"
    },
    "R": {
      "item": "#DUSTREDSTONE"
    },
    "C": {
      "item": "lucraftcore:lv_capacitor"
    },
    "W": {
      "item": "#WIRINGCOPPER"
    }
  },
  "group": "lucraftcore:circuit"
}