{
  "result": {
    "item": "lucraftcore:dust_intertium"
  },
  "ingredients": [
    {
      "item": "lucraftcore:hammer",
      "data": 32767
    },
    {
      "item": "lucraftcore:ingot_intertium"
    }
  ],
  "conditions": [
    {
      "item": "lucraftcore:dust_intertium",
      "type": "minecraft:item_exists"
    },
    {
      "item": "lucraftcore:hammer",
      "type": "minecraft:item_exists"
    },
    {
      "item": "lucraftcore:ingot_intertium",
      "type": "minecraft:item_exists"
    }
  ],
  "type": "minecraft:crafting_shapeless",
  "group": "lucraftcore:ingot_to_dust"
}