{
  "result": {
    "item": "lucraftcore:infinity_generator"
  },
  "pattern": [
    "PCP",
    "SNS",
    "PAP"
  ],
  "conditions": [
    {
      "item": "lucraftcore:infinity_generator",
      "type": "minecraft:item_exists"
    },
    {
      "item": "lucraftcore:advanced_circuit",
      "type": "minecraft:item_exists"
    },
    {
      "item": "minecraft:nether_star",
      "type": "minecraft:item_exists"
    },
    {
      "item": "lucraftcore:hv_capacitor",
      "type": "minecraft:item_exists"
    }
  ],
  "type": "forge:ore_shaped",
  "key": {
    "P": {
      "item": "#PLATEDWARFSTARALLOY"
    },
    "A": {
      "item": "lucraftcore:hv_capacitor"
    },
    "C": {
      "item": "lucraftcore:advanced_circuit"
    },
    "S": {
      "item": "#BLOCKSTEEL"
    },
    "N": {
      "item": "minecraft:nether_star"
    }
  }
}