{
  "result": {
    "item": "lucraftcore:ingot_palladium",
    "count": 9
  },
  "pattern": [
    "X"
  ],
  "conditions": [
    {
      "item": "lucraftcore:ingot_palladium",
      "type": "minecraft:item_exists"
    }
  ],
  "type": "forge:ore_shaped",
  "key": {
    "X": {
      "item": "#BLOCKPALLADIUM"
    }
  },
  "group": "lucraftcore:block_to_ingots"
}